Chapter 4 OLS and lasso | Machine Learning in R
…
## Linear Regression Model Specification (regression)
## 
## Main Arguments:
##   penalty = tune()
##   mixture = 1
## 
## Computational engine: glmnet

# penalty() searches 50 possible combinations 

lambda_grid <- grid_regular(penalty(), levels = 50)

lambda_grid

## # A tibble: 50 x 1
##     penalty
##       <dbl>
##  1 1.00e-10
##  2 1.60e-10
##  3 2.56e-10
##  4 4.09e-10
##  5 6.55e-10
##  6 1.05e- 9
##  7 1.68e- 9
##  8 2.68e- 9
##  9 4.29e- 9
## 10 6.87e- 9
## # … with 40 more rows
…
