Chapter 6 Random Forests | Machine Learning in R
…
# Raw data
vip::vi(rf1)

## # A tibble: 21 x 2
##    Variable Importance
##    <chr>         <dbl>
##  1 thal_X2     0.0364 
##  2 thal_X3     0.0258 
##  3 thalach     0.0155 
##  4 oldpeak     0.0150 
##  5 exang       0.0146 
##  6 sex_X1      0.0107 
##  7 ca_X1       0.00977
##  8 ca_X2       0.00479
##  9 slope_X2    0.00436
## 10 cp_X2       0.00323
## # … with 11 more rows
…
